{
    "config": {
        "currencySymbol": "€",
        "datePattern": "dd.MM.yyyy",
        "valueSeparator":" ",
        "averageSeparator":",",
        "odometerSeparator": " ",
        "odometerAbbreviation": "Km"
    }
}