{
    "config": {
        "currencySymbol": "CHF",
        "datePattern": "dd.MM.yyyy",
        "valueSeparator": "'",
        "averageSeparator": ".",
        "odometerSeparator": "'",
        "odometerAbbreviation": "Km"
    }
}