{
    "config": {
        "currencySymbol": "KR",
        "datePattern": "yyyy-MM-dd",
        "valueSeparator":"\u0020",
        "averageSeparator":",",
        "odometerSeparator": "\u0020",
        "odometerAbbreviation": "mil"
    }
}