{
    "summary": {
        "lrPrice": "VALEUR REGIONALE",
        "avgStockDays": "JOURS DE PUBLICATION",
        "desirability": "désirabilité",
        "avgMileage": "KILOMETRAGE",
        "avgPriceChanges": "NOMBRE DE CHANGEMENT DE PRIX",
        "summaryTooltip": {
            "header": "Live Retail - évaluations en temps réel",
            "content": "Cette fonction compare le prix demandé que vous avez défini au prix EurotaxLiveRetail pour des véhicules similaires en vente aujourd'hui sur le marché. LiveRetail est un guide qui indique les véhicules sur-évalués ou sous-évalués, en tenant compte de caractéristiques telles que l'âge exact et le kilométrage, afin d'évaluer chaque véhicule individuellement.",
            "content2": "Note : Bien que les véhicules puissent être très similaires, ils ne sont jamais totalement identiques, ce qui entraîne des différences de prix.",
            "list": {
                "first": "Jours de stock - Nombre moyen de jours pendant lesquels le véhicule a été en stock.",
                "second": "Kilométrage - Nombre moyen de kilomètres accumulés.",
                "third": "Désirabilité - Le véhicule le plus souhaitable pour générer des marges et des bénéfices. Excellent - Bon - Moyen - Médiocre.",
                "fourth": "Changements de prix - Le nombre moyen de changements de prix pour ce véhicule."
            }
        }
    },
    "report": {
        "graph": {
            "liveRetailPrice": "VALEUR REGIONALE",
            "lrp": "Base sur l'échantillon présent",
            "avg": "MOY."
        },
        "heading": {
            "zip": "CODE POSTAL"
        },
        "scatterTooltip": {
            "header": "Comparaison visuelle des prix de vente",
            "content": "Le passage du curseur de la souris sur l'icône du graphique permet d'ouvrir une comparaison visuelle des prix. Cela donne un aperçu des véhicules annoncés et de leur différence de prix par rapport à Eurotax Live Retail. Chaque point de couleur dans le graphique représente un véhicule et avec un clic, l'annonce du véhicule s'affiche.",
            "list": {
                "first": "Vert: exacte",
                "second": "Bleu: très proche",
                "third": "Jaune: forte concordance",
                "fourth": "Noir: ce véhicule"
            }
        }
    },
    "filters": {
        "mileage": "Kilom\u00E9trage",
        "year": "Ann\u00E9e",
        "keywords": "Mots-cl\u00E9s",
        "engineSize": "Taille de moteur",
        "fuel": "Carburant",
        "body": "Carrosserie",
        "transmission": "Bo\u00EEte de vitesses",
        "drive": "Mode de transmission",
        "power": "Puissance",
        "distance": "Rayon",
        "seller": "Vendeur",
        "dealerSeller": "Concessionnaire",
        "privateSeller": "Priv\u00E9",
        "vehicles": "V\u00E9hicules",
        "onSaleVehicles": "en vente",
        "soldVehicles": "Vendu (60 jours)",
        "showFilters": "Afficher les options de filtrage",
        "hideFilters": "Cacher les options de filtrage",
        "buttonSearch": "Recherche",
        "nullValid": "Tous",
        "wholeCountry": "Toute la Suisse",
        "filtersTooltip": {
            "content": "La fonctionnalité de recherche de LiveRetail permet aux utilisateurs de filtrer les résultats affichés comme suit.",
            "list": {
                "first": "Kilométrage",
                "second": "Date d'enregistrement",
                "third": "Type de carburant",
                "fourth": "Boute de vitesse",
                "fifth": "Puissance du moteur",
                "sixth": "Mots clés (par exemple Zetec, TDi Sport, S Line)",
                "seventh": "Cylindrée du moteur (CCM)",
                "eighth": "Type de carrosserie",
                "ninth": "Type de transmission",
                "tenth": "Distance du concessionnaire"
            }
        }
    },
    "matches": {
        "exact": "IDENTIQUE",
        "best": "TRÈS FORTE",
        "close": "FORTE",
        "similar": "SIMILAIRE",
        "matchesTooltip": {
            "content": "Ces icônes indiquent dans quelle mesure chaque véhicule figurant dans la liste ci-dessous correspond à votre véhicule. Les icônes de la même couleur sont également utilisées dans la comparaison visuelle du graphique en nuage de points. Les véhicules de la liste peuvent être classés en cliquant sur chaque en-tête de colonne."
        }
    },
    "results": {
        "ownVehicle": "Propre\nv\u00E9hicule",
        "adLinks": "Publicit\u00E9",
        "vehicle": "v\u00E9hicule",
        "askPrice": "Prix d'offre",
        "diffPrice": "VS",
        "lrPrice": "EurotaxLiveRetail",
        "similarity": "similaire",
        "distance": "Distance",
        "odometer": "Km",
        "regDate": "DPMC",
        "company": "Revendeur",
        "stockDays": "Dur\u00E9e<br>jours",
        "priceChanges": "CHANGEMENTS DE PRIX",
        "tooltips": {
            "vhDescription": {
                "header": "Descriptif complet",
                "make": "Marque",
                "modelSeries": "Mod\u00E8le",
                "type": "Type",
                "body": "Carrosserie",
                "doors": "Portes",
                "seats": "Si\u00E8ges",
                "fuel": "Carburant",
                "powerKW": "kW",
                "powerHP": "PS",
                "cylCubic": "Cylindr\u00E9e",
                "cylinders": "Cylinders",
                "gearBox": "Bo\u00EEte de vitesse",
                "noOfGears": "Vitesses",
                "drive": "Mode de transmission",
                "engineType": "Type de moteur",
                "wheelBase": "Empattement",
                "totalWeight": "Poids total",
                "payload": "Charge utile",
                "importBegin": "D\u00E9but de production",
                "importEnd": "Fin de production",
                "vhType": "Type de v\u00E9hicule",
                "nationalCode": "Code Eurotax"
            },
            "priceDiff": {
                "header": "EurotaxSpotPrice en d\u00E9tail",
                "standardVh": "V\u00E9hicule standard",
                "standardVhOdometer": "\u00F8 kilom\u00E9trique",
                "standardVhRegDate": "\u00F8 premi\u00E8re mise en circulation",
                "thisVh": "V\u00E9hicule s\u00E9lectionn\u00E9",
                "odometerEffect": "Correction kilom\u00E9trique",
                "ageEffect": "Correction mensuelle (\u00E2ge)",
                "regionalEffect": "Correction r\u00E9gionale",
                "options": "Equipements sp\u00E9ciaux:",
                "equipmentAverage": "Valeur moyenne des options - options specifiques ne pas disponibles",
                "totalEffects": "Toutes les corrections",
                "regionalAskingPrice": "Prix r\u00E9gional d'offre",
                "regional": "LiveRetailPrice",
                "askingPrice": "Prix d'offre",
                "priceDifference": "Diff\u00E9rence de prix",
                "underpriced": "Ecart -",
                "overpriced": "Ecart +",
                "noOptions": "Pas d'effet sur le prix"
            },
            "priceHistory": {
                "header": "Historique de l'information de prix",
                "dateAdRemoved": "Dernier Jour D'OFFRE",
                "removed": "Offre supprimée",
                "new": "Nouvelle parution",
                "priceCh": "Changement de prix",
                "original": "Offre d'origine"
            },
            "directImportFlag": {
                "header": "Importation directe",
                "content": "Le v\u00E9hicule a \u00E9t\u00E9 import\u00E9 directement"
            }
        }
    },
    "config": {
        "monthsTraslation": "Mois"
    },
    "errorCode": {
        "wrongAskingOrMileage": "Le prix demandé et/ou le kilométrage sont obligatoires et ne peuvent pas être 0 pour que la fonctionnalité LiveRetail fonctionne. Veuillez les modifier. Si vous rencontrez d'autres problèmes, veuillez contacter notre équipe d'assistance à la clientèle.",
        "onlyOwnVh": "Il n'y a pas de véhicules similaires selon les options de filtrage que vous avez choisies. Veuillez modifier vos critères de filtrage, par exemple le rayon de la recherche en utilisant le filtre de distance, et réessayez."
    }
}