{
    "summary": {
        "lrPrice": "Indeks Live Retail",
        "avgStockDays": "\u015AR. CZAS OG\u0141OSZENIA",
        "desirability": "INDEKS POPYTU",
        "avgMileage": "\u015AR. PRZEBIEG",
        "avgPriceChanges": "\u015AR. ILO\u015A\u0106 ZMIAN CEN",
        "summaryTooltip": {
            "header": "Live Retail - real-time valuations",
            "content": "This function compares the asking price you have set to Glass’s LIVE Retail prices for similar vehicles for sale today in the market. Live Retail is a guide to indicate over and underpriced vehicles, taking into account characteristics such as exact age and mileage to individually value each vehicle.",
            "content2": "Note: Although vehicles can be very similar, they are never fully identical resulting in price differences.",
            "list": {
                "first": "Stock days - Average number of days the vehicle has been in stock.",
                "second": "Mileage - Average number of miles accumulated.",
                "third": "Desirability - The most desirable vehicle for generating margin and profit. Excellent - Good - Fair - Poor.",
                "fourth": "Price changes – The average number of retail price changes for this vehicle."
            }
        }
    },
    "report": {
        "graph": {
            "liveRetailPrice": "INDEKS LIVE RETAIL",
            "lrp": "ILR",
            "avg": "\u015AR. "
        },
        "heading": {
            "zip": "KOD POCZTOWY"
        },
        "scatterTooltip": {
            "header": "Visual retail price comparison",
            "content": "Moving the mouse cursor over the graph icon opens a visual price comparison. This gives an overview of advertised vehicles and their price difference from Glass’s Live Retail. Each coloured dot in the graph represents one vehicle and can be clicked to show the actual vehicle advert.",
            "list": {
                "first": "Green: Exact match",
                "second": "Blue: Very close match",
                "third": "Yellow: Close match",
                "fourth": "Black: This Vehicle"
            }
        }
    },
    "filters": {
        "mileage": "Przebieg",
        "year": "Rok",
        "keywords": "S\u0142owa kluczowe",
        "engineSize": "Poj. silnika",
        "fuel": "Paliwo",
        "body": "Nadwozie",
        "transmission": "Skrzynia bieg\u00F3w",
        "drive": "Rodzaj nap\u0119du",
        "power": "Moc",
        "distance": "Odleg\u0142o\u015B\u0107",
        "seller": "Sprzedaj\u0105cy",
        "dealerSeller": "Dealer",
        "privateSeller": "Osoba prywatna",
        "vehicles": "Pojazdy",
        "onSaleVehicles": "W sprzeda\u017Cy",
        "soldVehicles": "Sprzedane (60 dni)",
        "showFilters": "Poka\u017C filtry",
        "hideFilters": "Ukryj filtry",
        "buttonSearch": "Szukaj",
        "nullValid": "Wszystko",
        "wholeCountry": "Ca\u0142y kraj",
        "filtersTooltip": {
            "content": "The Live Retail search functionality allows users to filter the displayed vehicle results as follows.",
            "list": {
                "first": "Mileage",
                "second": "Registration date",
                "third": "Fuel type",
                "fourth": "Transmission",
                "fifth": "Engine Power",
                "sixth": "Keywords (eg Zetec, TDi Sport, S Line)",
                "seventh": "Engine displacement (CCM)",
                "eighth": "Body type",
                "ninth": "Drive type",
                "tenth": "Distance from dealership"
            }
        }
    },
    "matches": {
        "exact": "Dok\u0142adne dopasowanie",
        "best": "Bardzo du\u017Ce",
        "close": "Du\u017Ce",
        "similar": "\u015Arednie",
        "matchesTooltip": {
            "content": "These icons illustrate how closely each vehicle shown in the list below matches your vehicle. The same colour icons are also used in the visual scatter graph comparison. The vehicles in the list can be ordered by clicking on each of the column headers."
        }
    },
    "results": {
        "ownVehicle": "Tw\u00F3j\npojazd",
        "adLinks": "Og\u0142oszenie",
        "vehicle": "Vehicle",
        "askPrice": "Cena wywo\u0142awcza",
        "diffPrice": "VS",
        "lrPrice": "Indeks Eurotax",
        "similarity": "DOPASOWANIE",
        "distance": "Odleg\u0142o\u015B\u0107",
        "odometer": "Przebieg",
        "regDate": "Data pierwszej rejestracji",
        "company": "Firma",
        "stockDays": "Czas og\u0142oszenia",
        "priceChanges": "Historia zmiany cen",
        "tooltips": {
            "vhDescription": {
                "header": "Pe\u0142ny opis",
                "make": "Marka",
                "modelSeries": "Model",
                "type": "Typ",
                "body": "Nadwozie",
                "doors": "Drzwi",
                "seats": "Ilo\u015Bc siedze\u0144",
                "fuel": "Rodzaj paliwa",
                "powerKW": "Moc silnika (kW)",
                "powerHP": "Moc silnika (KM)",
                "cylCubic": "Pojemno\u015B\u0107 silnika",
                "cylinders": "Cylindry",
                "gearBox": "Rodzaj skrzyni bieg\u00F3w",
                "noOfGears": "Ilo\u015Bc bieg\u00F3w",
                "drive": "Rodzaj nap\u0119du",
                "engineType": "Rodzaj silnika",
                "wheelBase": "Rozstaw osi",
                "totalWeight": "Masa ca\u0142kowita",
                "payload": "\u0141adowno\u015B\u0107",
                "importBegin": "Pocz\u0105tek sprzeda\u017Cy",
                "importEnd": "Koniec sprzeda\u017Cy",
                "vhType": "Rodzaj pojazdu",
                "nationalCode": "Kod EC"
            },
            "priceDiff": {
                "header": "Index Eurotax - szczeg\u00F3\u0142y",
                "standardVh": "Pojazd modelowy",
                "standardVhOdometer": "Przebieg standardowy",
                "standardVhRegDate": "Data pierwszej rejestracji",
                "thisVh": "Wybrany pojazd",
                "odometerEffect": "Korekta kilometrowa",
                "ageEffect": "Korekta na dat\u0119 rejestracji",
                "regionalEffect": "Korekta regionalna",
                "options": "Equipment:",
                "equipmentAverage": "Avg options value - detailed options n/a",
                "totalEffects": "Suma korekt",
                "regionalAskingPrice": "Indeks Eurotax",
                "regional": "Indeks Eurotax",
                "askingPrice": "Cena wywo\u0142awcza",
                "priceDifference": "R\u00C3\u00B3\u00F3\u017Cnica cen",
                "underpriced": "R\u00F3\u017Cnica do ceny wywo\u0142awczej (PLN)",
                "overpriced": "R\u00F3\u017Cnica do ceny wywo\u0142awczej (PLN)",
                "noOptions": "No Effect in Price"
            },
            "priceHistory": {
                "header": "Historia",
                "dateAdRemoved": "Ostatnia data og\u0142oszenia",
                "removed": "Og\u0142oszenie usuni\u0119te",
                "new": "Nowe og\u0142oszenie",
                "priceCh": "Zmiana ceny",
                "original": "Oryginalne og\u0142oszenie"
            }
        }
    },
    "config": {
        "monthsTraslation": "miesięcy"
    },
    "errorCode": {
        "wrongAskingOrMileage": "Asking price and/or mileage are mandatory and cannot be 0 for live retail functionality to work. Please amend. If you experience further issues, then please contact our Customer Support team.",
        "onlyOwnVh": "There are no similar vehicles based on your chosen filtering options. Please change your filtering criteria, e.g. the radius of the search using the distance filter and try again."
    }
}